
pathSave = "H:\\autoImagJ\\sourceTIFF\\";
pathRead = "H:\\autoImagJ\\sourceSPE\\";

setBatchMode(true); 

// Display info about the files
  list = getFileList(pathRead);
  for (i=0; i<list.length; i++){
      print(list[i]+": "+File.length(pathRead+list[i])+"  "+File. dateLastModified(pathRead+list[i]));
      fileName = list[i]; 
      print("now opening stack"); open(pathRead+fileName); 
      currentpath = pathRead+fileName;
      print(currentpath);   
      width = getWidth; print(width); height = getHeight; print(height); depth = nSlices; print(depth); 

     

      for(slice=1; slice<=depth; slice++){
	      print("slice="+slice);
	      selectWindow(fileName); 
            print("test1");
            setSlice(slice); 
            valuecramee = getPixel(1033,1155);
            print("test2");
            setPixel(1034, 1154,valuecramee);
            setPixel(1035, 1154,valuecramee);
	      setPixel(1036, 1154,valuecramee);
	      setPixel(1034, 1155,valuecramee);
	      setPixel(1035, 1155,valuecramee);
	      setPixel(1035, 1156,valuecramee);
	      setPixel(1036, 1156,valuecramee);
	      setPixel(1036, 1157,valuecramee);
	      setPixel(1038, 1154,valuecramee);
	      setPixel(1038, 1155,valuecramee);
	      setPixel(1037, 1158,valuecramee);
	      setPixel(1034, 1155,valuecramee);
	      setPixel(1038, 1156,valuecramee);
	      setPixel(1036, 1153,valuecramee);
	      setPixel(1037, 1153,valuecramee);
	      setPixel(1038, 1153,valuecramee);
	      setPixel(1037, 1154,valuecramee);
	      setPixel(1037, 1155,valuecramee);
	      setPixel(1037, 1156,valuecramee);
	      setPixel(1037, 1157,valuecramee);
	      setPixel(1036, 1155,valuecramee);
            print("test3");

                         } // end for slice

      run("Remove Outliers...", "radius=1 threshold=200 which=Bright stack");
      saveAs("Tiff", pathSave+"cleaned_stack_"+fileName); 
//      run("Z Project...", "start=1 stop=3 projection=[Sum Slices]");
//      saveAs("Tiff", pathSave+"cleaned_somme_all_"+fileName); 
      close();
//      close();
                         } // end of file

setBatchMode(false); 
print("***FINISHED***");


