
pathSave = "H:\\autoImagJ\\sourceTIFF\\";
pathRead = "H:\\autoImagJ\\sourceHDF5\\";

setBatchMode(true); 

// Display info about the files
  list = getFileList(pathRead);
  for (i=0; i<list.length; i++){
      print(list[i]+": "+File.length(pathRead+list[i])+"  "+File. dateLastModified(pathRead+list[i]));

      fileName = list[i]; 
      print("now opening stack"); 
      //open(pathRead+fileName); 
      fileNameNxs = fileName + "data_20";  
      print(fileNameNxs);
      print("now opening stack"); 
      // open(pathRead+fileName); 
      currentpath = pathRead+fileName;
      print(currentpath);
      //run("Load HDF5 File", "open="+currentpath+" 3d possible=float");
      run("Load HDF5 File", "open="+currentpath+" 3d possible=float"); //close();
      rename(fileName);
      // comanda de mai sus deschide amandoua imaginile 3D: full si roi. Deci primul "close" inchide "roi" si ramane deschisa cea in "full"   
      width = getWidth; print(width); height = getHeight; print(height); depth = nSlices; print(depth); 
      //valuecramee = getPixel(1033,1155);
     

      saveAs("Tiff", pathSave+"cleaned_"+fileName); 
      //run("Z Project...", "start=1 stop=6 projection=[Sum Slices]");
      //saveAs("Tiff", pathSave+"_somme_all_"+fileName); 
      //print("test6");
      close();
      //close();
                         } // end of file

setBatchMode(false); 
print("***FINISHED***");


